00:00:00,0.0
00:10:00,0.0
00:20:00,0.0
00:30:00,0.0
00:40:00,0.0
00:50:00,0.0
01:00:00,0.0
01:10:00,0.0
01:20:00,0.0
01:30:00,0.0
01:40:00,0.0
01:50:00,0.0
02:00:00,0.0
02:10:00,0.0
02:20:00,0.0
02:30:00,0.0
02:40:00,0.0
02:50:00,0.0
03:00:00,0.0
03:10:00,0.0
03:20:00,0.0
03:30:00,0.0
03:40:00,0.0
03:50:00,0.0
04:00:00,0.0
04:10:00,0.0
04:20:00,0.0
04:30:00,0.0
04:40:00,0.0
04:50:00,0.0
05:00:00,0.0
05:10:00,0.000565930956423
05:20:00,0.00113186191285
05:30:00,0.00169779286927
05:40:00,0.00169779286927
05:50:00,0.00169779286927
06:00:00,0.00226372382569
06:10:00,0.00282965478212
06:20:00,0.00339558573854
06:30:00,0.00565930956423
06:40:00,0.00792303338993
06:50:00,0.0130164119977
07:00:00,0.0169779286927
07:10:00,0.0198075834748
07:20:00,0.0232031692134
07:30:00,0.0265987549519
07:40:00,0.0305602716469
07:50:00,0.0356536502547
08:00:00,0.0379173740804
08:10:00,0.0396151669496
08:20:00,0.0401810979061
08:30:00,0.0430107526882
08:40:00,0.0452744765139
08:50:00,0.0469722693831
09:00:00,0.0498019241653
09:10:00,0.0526315789474
09:20:00,0.0531975099038
09:30:00,0.0548953027731
09:40:00,0.0571590265988
09:50:00,0.0577249575552
10:00:00,0.058856819468
10:10:00,0.0594227504244
10:20:00,0.0599886813809
10:30:00,0.0605546123373
10:40:00,0.0616864742501
10:50:00,0.0616864742501
11:00:00,0.0645161290323
11:10:00,0.0656479909451
11:20:00,0.0656479909451
11:30:00,0.066779852858
11:40:00,0.0690435766836
11:50:00,0.0713073005093
12:00:00,0.0747028862479
12:10:00,0.0797962648557
12:20:00,0.0905489530277
12:30:00,0.102433503113
12:40:00,0.11714770798
12:50:00,0.131861912847
13:00:00,0.149405772496
13:10:00,0.162422184493
13:20:00,0.182229767968
13:30:00,0.2026032824
13:40:00,0.21675155631
13:50:00,0.233729485003
14:00:00,0.258064516129
14:10:00,0.277306168647
14:20:00,0.293718166384
14:30:00,0.305602716469
14:40:00,0.316355404641
14:50:00,0.322014714205
15:00:00,0.329371816638
15:10:00,0.336728919072
15:20:00,0.342954159593
15:30:00,0.346915676287
15:40:00,0.350311262026
15:50:00,0.353140916808
16:00:00,0.353706847765
16:10:00,0.354272778721
16:20:00,0.355404640634
16:30:00,0.356536502547
16:40:00,0.358234295416
16:50:00,0.359366157329
17:00:00,0.361629881154
17:10:00,0.36389360498
17:20:00,0.365591397849
17:30:00,0.366723259762
17:40:00,0.367289190719
17:50:00,0.368421052632
18:00:00,0.370118845501
18:10:00,0.371250707414
18:20:00,0.372382569327
18:30:00,0.375212224109
18:40:00,0.382003395586
18:50:00,0.392190152801
19:00:00,0.406338426712
19:10:00,0.418788907753
19:20:00,0.44142614601
19:30:00,0.46519524618
19:40:00,0.500282965478
19:50:00,0.538200339559
20:00:00,0.576683644595
20:10:00,0.611205432937
20:20:00,0.642897566497
20:30:00,0.685342388229
20:40:00,0.72948500283
20:50:00,0.774193548387
21:00:00,0.825127334465
21:10:00,0.869835880023
21:20:00,0.900962082626
21:30:00,0.926994906621
21:40:00,0.949632144878
21:50:00,0.964912280702
22:00:00,0.975099037917
22:10:00,0.981324278438
22:20:00,0.985851726089
22:30:00,0.988681380872
22:40:00,0.991511035654
22:50:00,0.994906621392
23:00:00,0.997170345218
23:10:00,0.997736276174
23:20:00,0.997736276174
23:30:00,0.998868138087
23:40:00,1.0
23:50:00,1.0
